[{
  "hex_code": "00",
  "name": "Empty"
}, {
  "hex_code": "01",
  "name": "Helm"
}, {
  "hex_code": "02",
  "name": "Golden Helm"
}, {
  "hex_code": "03",
  "name": "Frost Helm"
}, {
  "hex_code": "04",
  "name": "Mithril Helm"
}, {
  "hex_code": "05",
  "name": "Blood Helm"
}, {
  "hex_code": "06",
  "name": "Cloud Helm"
}, {
  "hex_code": "07",
  "name": "Angel Helm"
}, {
  "hex_code": "08",
  "name": "Dragon Helm"
}, {
  "hex_code": "09",
  "name": "Holy Helm"
}, {
  "hex_code": "0A",
  "name": "Winged Helm"
}, {
  "hex_code": "0B",
  "name": "Serpent Helm"
}, {
  "hex_code": "0C",
  "name": "Hero Helm"
}, {
  "hex_code": "0D",
  "name": "War Helm"
}, {
  "hex_code": "0E",
  "name": "Doom Helm"
}, {
  "hex_code": "0F",
  "name": "Chaos Helm"
}, {
  "hex_code": "10",
  "name": "Death Helm"
}, {
  "hex_code": "11",
  "name": "Sun Amulet"
}, {
  "hex_code": "12",
  "name": "Moon Amulet"
}, {
  "hex_code": "13",
  "name": "Serpent Amulet"
}, {
  "hex_code": "14",
  "name": "Amber Amulet"
}, {
  "hex_code": "15",
  "name": "Dragon Amulet"
}, {
  "hex_code": "16",
  "name": "Cloud Amulet"
}, {
  "hex_code": "17",
  "name": "Leather boots"
}, {
  "hex_code": "18",
  "name": "Iron boots"
}, {
  "hex_code": "19",
  "name": "Elf boots"
}, {
  "hex_code": "1A",
  "name": "Golden boots"
}, {
  "hex_code": "1B",
  "name": "Crystal boots"
}, {
  "hex_code": "1C",
  "name": "Cloud boots"
}, {
  "hex_code": "1D",
  "name": "Leather Buckler"
}, {
  "hex_code": "1E",
  "name": "Iron Buckler"
}, {
  "hex_code": "1F",
  "name": "Arc Shield"
}, {
  "hex_code": "20",
  "name": "Battle Bane"
}, {
  "hex_code": "21",
  "name": "Iron Shield"
}, {
  "hex_code": "22",
  "name": "Golden Shield"
}, {
  "hex_code": "23",
  "name": "Bane Shield"
}, {
  "hex_code": "24",
  "name": "Dragon Shield"
}, {
  "hex_code": "25",
  "name": "War Shield"
}, {
  "hex_code": "26",
  "name": "Serpent Shield"
}, {
  "hex_code": "27",
  "name": "Heron Shield"
}, {
  "hex_code": "28",
  "name": "Robes"
}, {
  "hex_code": "29",
  "name": "Leathers"
}, {
  "hex_code": "2A",
  "name": "Chain Mail"
}, {
  "hex_code": "2B",
  "name": "Plate Mail"
}, {
  "hex_code": "2C",
  "name": "Bracers"
}, {
  "hex_code": "2D",
  "name": "Arcane Bracers"
}, {
  "hex_code": "2E",
  "name": "Mithril Chain"
}, {
  "hex_code": "2F",
  "name": "Mithril Plate"
}, {
  "hex_code": "30",
  "name": "Stealth Bracers"
}, {
  "hex_code": "31",
  "name": "Blood Leathers"
}, {
  "hex_code": "32",
  "name": "Crystal Chain"
}, {
  "hex_code": "33",
  "name": "Crystal Plate"
}, {
  "hex_code": "34",
  "name": "Holy Crystal"
}, {
  "hex_code": "35",
  "name": "Leather Gloves"
}, {
  "hex_code": "36",
  "name": "Amber Ring"
}, {
  "hex_code": "37",
  "name": "Gauntlets"
}, {
  "hex_code": "38",
  "name": "Chaos Gloves"
}, {
  "hex_code": "39",
  "name": "Serpent Ring"
}, {
  "hex_code": "3A",
  "name": "Cloud Ring"
}, {
  "hex_code": "3B",
  "name": "Dragon Ring"
}, {
  "hex_code": "3C",
  "name": "Blood Ring"
}, {
  "hex_code": "3D",
  "name": "Stealth Gloves"
}, {
  "hex_code": "3E",
  "name": "Sun Ring"
}, {
  "hex_code": "3F",
  "name": "Moon Ring"
}, {
  "hex_code": "40",
  "name": "Mithril Gloves"
}, {
  "hex_code": "41",
  "name": "Battle Gloves"
}, {
  "hex_code": "42",
  "name": "Dagger"
}, {
  "hex_code": "43",
  "name": "Short Sword"
}, {
  "hex_code": "44",
  "name": "Staff"
}, {
  "hex_code": "45",
  "name": "Broad Sword"
}, {
  "hex_code": "46",
  "name": "Mithril Dagger"
}, {
  "hex_code": "47",
  "name": "Battle Staff"
}, {
  "hex_code": "48",
  "name": "Battle Axe"
}, {
  "hex_code": "49",
  "name": "Mithril Blade"
}, {
  "hex_code": "4A",
  "name": "Mithril Sword"
}, {
  "hex_code": "4B",
  "name": "Mithril Axe"
}, {
  "hex_code": "4C",
  "name": "Broad Axe"
}, {
  "hex_code": "4D",
  "name": "Hero Staff"
}, {
  "hex_code": "4E",
  "name": "Heron Blade"
}, {
  "hex_code": "4F",
  "name": "Death Axe"
}, {
  "hex_code": "50",
  "name": "Stealth Blade"
}, {
  "hex_code": "51",
  "name": "Death Blade"
}, {
  "hex_code": "52",
  "name": "Arcane Sword"
}, {
  "hex_code": "53",
  "name": "Doom Blade"
}, {
  "hex_code": "54",
  "name": "Blood Axe"
}, {
  "hex_code": "55",
  "name": "Vorpal Blade"
}, {
  "hex_code": "56",
  "name": "Slugger"
}, {
  "hex_code": "57",
  "name": "Crystal Blade"
}, {
  "hex_code": "58",
  "name": "Ancient Staff"
}, {
  "hex_code": "59",
  "name": "Mystic Axe"
}, {
  "hex_code": "5A",
  "name": "Mystic Sword"
}, {
  "hex_code": "5B",
  "name": "Mystic Dagger"
}, {
  "hex_code": "5C",
  "name": "Mystic Staff"
}, {
  "hex_code": "5D",
  "name": "Bag of Gold"
}, {
  "hex_code": "5E",
  "name": "Bag of bat wings"
}, {
  "hex_code": "5F",
  "name": "Bag of sulphur"
}, {
  "hex_code": "60",
  "name": "Bag of roots"
}, {
  "hex_code": "61",
  "name": "Bag of crystals"
}, {
  "hex_code": "62",
  "name": "Bag of venom sacs"
}, {
  "hex_code": "63",
  "name": "Bag of ugly teeth"
}, {
  "hex_code": "64",
  "name": "Bag of berries"
}, {
  "hex_code": "65",
  "name": "Bag of fiery claws"
}, {
  "hex_code": "66",
  "name": "Amber Staff"
}, {
  "hex_code": "67",
  "name": "Moon Staff"
}, {
  "hex_code": "68",
  "name": "Cloud Staff"
}, {
  "hex_code": "69",
  "name": "Serpent Staff"
}, {
  "hex_code": "6A",
  "name": "Sun Staff"
}, {
  "hex_code": "6B",
  "name": "Dragon Staff"
}, {
  "hex_code": "6C",
  "name": "Amber Wand"
}, {
  "hex_code": "6D",
  "name": "Moon Wand"
}, {
  "hex_code": "6E",
  "name": "Cloud Wand"
}, {
  "hex_code": "6F",
  "name": "Dragon Wand"
}, {
  "hex_code": "70",
  "name": "Serpent Wand"
}, {
  "hex_code": "71",
  "name": "Sun Wand"
}, {
  "hex_code": "72",
  "name": "Crystal Wand"
}, {
  "hex_code": "73",
  "name": "Scroll Heal (weak)"
}, {
  "hex_code": "74",
  "name": "Scroll Forward Dispell"
}, {
  "hex_code": "75",
  "name": "Scroll Surround Thrall"
}, {
  "hex_code": "76",
  "name": "Scroll Mystic Weapon"
}, {
  "hex_code": "77",
  "name": "Scroll Surround Paralyse"
}, {
  "hex_code": "78",
  "name": "Scroll Forward Paralyse"
}, {
  "hex_code": "79",
  "name": "Scroll Heal (medium)"
}, {
  "hex_code": "7A",
  "name": "Scroll Surround Damage"
}, {
  "hex_code": "7B",
  "name": "Hero Scroll "
}, {
  "hex_code": "7C",
  "name": "Scroll Antimage Surround Antimage"
}, {
  "hex_code": "7D",
  "name": "Scroll Forward Damage"
}, {
  "hex_code": "7E",
  "name": "Scroll Heal (strong)"
}, {
  "hex_code": "7F",
  "name": "Scroll Regeneration Surround Regeneration"
}, {
  "hex_code": "80",
  "name": "Scroll Forward Disrupt"
}, {
  "hex_code": "81",
  "name": "Scroll Heal Surround Heal"
}, {
  "hex_code": "82",
  "name": "Scroll Forward Vivify"
}, {
  "hex_code": "83",
  "name": "Craven Image"
}, {
  "hex_code": "84",
  "name": "Holy Relic"
}, {
  "hex_code": "85",
  "name": "Skull Key"
}, {
  "hex_code": "86",
  "name": "Iron Key"
}, {
  "hex_code": "87",
  "name": "Silver Key"
}, {
  "hex_code": "88",
  "name": "Bronze Key"
}, {
  "hex_code": "89",
  "name": "Gold Key"
}, {
  "hex_code": "8A",
  "name": "Diamond Key"
}, {
  "hex_code": "8B",
  "name": "Crystal Key"
}, {
  "hex_code": "8C",
  "name": "Azure Key"
}, {
  "hex_code": "8D",
  "name": "Emerald Key"
}, {
  "hex_code": "8E",
  "name": "Ruby Key"
}, {
  "hex_code": "8F",
  "name": "Topaz Key"
}, {
  "hex_code": "90",
  "name": "Ornate Key"
}, {
  "hex_code": "91",
  "name": "Dark Key"
}, {
  "hex_code": "92",
  "name": "Moon Key"
}, {
  "hex_code": "93",
  "name": "UnKey"
}, {
  "hex_code": "94",
  "name": "Permit"
}, {
  "hex_code": "95",
  "name": "Serpent Crystal"
}, {
  "hex_code": "96",
  "name": "Moon"
}, {
  "hex_code": "97",
  "name": "Dragon"
}, {
  "hex_code": "98",
  "name": "Chaos"
}, {
  "hex_code": "99",
  "name": "Slyzaar's Corpse"
}, {
  "hex_code": "9A",
  "name": "Tunarle's Corpse"
}, {
  "hex_code": "9B",
  "name": "Thai-Chang's Corpse"
}, {
  "hex_code": "9C",
  "name": "Zothen's Corpse"
}, {
  "hex_code": "9D",
  "name": "Serpent Potion (weak)"
}, {
  "hex_code": "9E",
  "name": "Power Potion"
}, {
  "hex_code": "9F",
  "name": "Cloud Potion"
}, {
  "hex_code": "A0",
  "name": "Moon Potion"
}, {
  "hex_code": "A1",
  "name": "Amber Potion"
}, {
  "hex_code": "A2",
  "name": "Serpent Potion (medium)"
}, {
  "hex_code": "A3",
  "name": "Hero Potion"
}, {
  "hex_code": "A4",
  "name": "Golden Potion"
}, {
  "hex_code": "A5",
  "name": "Serpent Potion (strong)"
}, {
  "hex_code": "A6",
  "name": "Bronze Potion"
}, {
  "hex_code": "A7",
  "name": "Serpent Potion (max)"
}, {
  "hex_code": "A8",
  "name": "Dragon Potion"
}, {
  "hex_code": "A9",
  "name": "Horn"
}, {
  "hex_code": "AA",
  "name": "Lyre"
}, {
  "hex_code": "AB",
  "name": "Mandolin"
}, {
  "hex_code": "AC",
  "name": "Harmonic Lyre"
}, {
  "hex_code": "AD",
  "name": "Crystal Mandolin"
}, {
  "hex_code": "AE",
  "name": "Diamond Horn"
}, {
  "hex_code": "AF",
  "name": "Battle Horn"
}, {
  "hex_code": "B0",
  "name": "Arcane Mandolin"
}, {
  "hex_code": "B1",
  "name": "Angel Harp"
}, {
  "hex_code": "B2",
  "name": "Mixing Bowl"
}]
